objFile,initialization,reasonerSpawnAvg,reasonerSpawnStdDev,reasonerSpawnSum,reasonerSpawnAndParseAvg,reasonerSpawnAndParseStdDev,reasonerSpawnAndParseSum,graphBuilderSetup,graphConstruction,graphOptimization,output,composition,reasoning,firstReplan,blacklisting,execution,total
ExperimentResult5866196222060523905.obj,506.984,NaN,-0.0,0.0,NaN,-0.0,0.0,112.17,110.937,0.0,295.011,96.301,0.0,0.0,0.0,-1.0,1124.92
ExperimentResult3154878550652055669.obj,125.931,NaN,-0.0,0.0,NaN,-0.0,0.0,13.702,32.402,0.0,93.962,41.658,0.0,0.0,0.0,-1.0,310.961
ExperimentResult2107391950779947721.obj,78.703,NaN,-0.0,0.0,NaN,-0.0,0.0,8.647,18.802,0.0,51.202,26.902,0.0,0.0,0.0,-1.0,190.471
ExperimentResult6000794601496196175.obj,1241.233,NaN,-0.0,0.0,NaN,-0.0,0.0,93.686,20.356,0.0,594.838,26.516,0.0,0.0,0.0,-1.0,1980.353
ExperimentResult4812110745186272489.obj,28.488,NaN,-0.0,0.0,NaN,-0.0,0.0,2.69,6.348,0.0,10.666,6.362,0.0,0.0,0.0,-1.0,58.028
ExperimentResult7749645639825164638.obj,413.956,NaN,-0.0,0.0,NaN,-0.0,0.0,48.797,141.026,0.0,289.578,87.445,0.0,0.0,0.0,-1.0,984.827
ExperimentResult3883682865917660377.obj,131.789,NaN,-0.0,0.0,NaN,-0.0,0.0,10.733,27.574,0.0,74.526,27.234,0.0,0.0,0.0,-1.0,276.145
ExperimentResult1079907116425385061.obj,106.887,NaN,-0.0,0.0,NaN,-0.0,0.0,9.701,18.3,0.0,66.616,20.031,0.0,0.0,0.0,-1.0,230.387
ExperimentResult299661101167237470.obj,92.841,NaN,-0.0,0.0,NaN,-0.0,0.0,9.103,21.926,0.0,56.913,25.559,0.0,0.0,0.0,-1.0,211.063
ExperimentResult3844396515138115871.obj,90.384,NaN,-0.0,0.0,NaN,-0.0,0.0,14.676,21.137,0.0,52.02,28.417,0.0,0.0,0.0,-1.0,209.998
ExperimentResult8821802386807257659.obj,54.727,NaN,-0.0,0.0,NaN,-0.0,0.0,7.979,20.876,0.0,37.512,31.176,0.0,0.0,0.0,-1.0,155.965
ExperimentResult9048547650245775504.obj,142.97,NaN,-0.0,0.0,NaN,-0.0,0.0,13.892,31.301,0.0,86.856,43.361,0.0,0.0,0.0,-1.0,322.352
ExperimentResult5398055701652203164.obj,902.958,NaN,-0.0,0.0,NaN,-0.0,0.0,61.971,260.164,0.0,516.316,92.962,0.0,0.0,0.0,-1.0,1837.397
ExperimentResult8499951967044834361.obj,601.658,NaN,-0.0,0.0,NaN,-0.0,0.0,60.192,24.603,0.0,328.453,24.854,0.0,0.0,0.0,-1.0,1043.602
ExperimentResult2543805986688981534.obj,75.605,NaN,-0.0,0.0,NaN,-0.0,0.0,11.481,28.081,0.0,65.692,24.351,0.0,0.0,0.0,-1.0,211.909
ExperimentResult3272238710308596046.obj,68.765,NaN,-0.0,0.0,NaN,-0.0,0.0,8.795,20.526,0.0,41.348,20.015,0.0,0.0,0.0,-1.0,163.02
ExperimentResult4365267675331406687.obj,29.297,NaN,-0.0,0.0,NaN,-0.0,0.0,2.68,6.617,0.0,11.276,5.776,0.0,0.0,0.0,-1.0,59.131
ExperimentResult7223136717275988574.obj,274.499,NaN,-0.0,0.0,NaN,-0.0,0.0,32.587,20.269,0.0,200.456,27.619,0.0,0.0,0.0,-1.0,558.892
ExperimentResult605854268964521086.obj,80.367,NaN,-0.0,0.0,NaN,-0.0,0.0,6.943,18.903,0.0,40.125,25.706,0.0,0.0,0.0,-1.0,177.52
ExperimentResult1463889461964058991.obj,1043.856,NaN,-0.0,0.0,NaN,-0.0,0.0,246.118,25.365,0.0,609.862,24.95,0.0,0.0,0.0,-1.0,1957.672
ExperimentResult3682688655122643645.obj,24.889,NaN,-0.0,0.0,NaN,-0.0,0.0,2.137,3.577,0.0,9.795,4.721,0.0,0.0,0.0,-1.0,48.566
ExperimentResult2189330095294699004.obj,281.609,NaN,-0.0,0.0,NaN,-0.0,0.0,26.624,23.308,0.0,165.748,27.083,0.0,0.0,0.0,-1.0,527.614
ExperimentResult7181443920543095397.obj,30.466,NaN,-0.0,0.0,NaN,-0.0,0.0,2.444,5.646,0.0,11.666,6.016,0.0,0.0,0.0,-1.0,60.024
ExperimentResult7988418308626258336.obj,30.976,NaN,-0.0,0.0,NaN,-0.0,0.0,2.581,6.105,0.0,12.761,7.138,0.0,0.0,0.0,-1.0,63.487
ExperimentResult2938087398410128760.obj,164.704,NaN,-0.0,0.0,NaN,-0.0,0.0,21.759,21.459,0.0,110.935,23.946,0.0,0.0,0.0,-1.0,347.773
ExperimentResult2205881256433965112.obj,36.765,NaN,-0.0,0.0,NaN,-0.0,0.0,4.433,9.906,0.0,17.866,7.942,0.0,0.0,0.0,-1.0,80.633
ExperimentResult4309189502251885435.obj,932.391,NaN,-0.0,0.0,NaN,-0.0,0.0,81.142,270.902,0.0,504.211,116.26,0.0,0.0,0.0,-1.0,1908.514
ExperimentResult4536607205181975328.obj,36.212,NaN,-0.0,0.0,NaN,-0.0,0.0,4.589,9.699,0.0,20.775,8.843,0.0,0.0,0.0,-1.0,84.572
ExperimentResult3879073917405692773.obj,199.494,NaN,-0.0,0.0,NaN,-0.0,0.0,16.562,24.309,0.0,136.029,22.611,0.0,0.0,0.0,-1.0,405.247
ExperimentResult8170226729908723016.obj,131.352,NaN,-0.0,0.0,NaN,-0.0,0.0,15.551,27.099,0.0,76.522,38.754,0.0,0.0,0.0,-1.0,292.803
ExperimentResult7999088130155421666.obj,2029.692,NaN,-0.0,0.0,NaN,-0.0,0.0,122.99,332.1,0.0,992.556,162.351,0.0,0.0,0.0,-1.0,3643.202
ExperimentResult6938782758517496579.obj,233.151,NaN,-0.0,0.0,NaN,-0.0,0.0,29.803,50.001,0.0,123.25,54.58,0.0,0.0,0.0,-1.0,493.706
ExperimentResult8101674361092826238.obj,24.039,NaN,-0.0,0.0,NaN,-0.0,0.0,2.098,3.915,0.0,10.795,4.783,0.0,0.0,0.0,-1.0,48.692
ExperimentResult6819941276078836515.obj,64.98,NaN,-0.0,0.0,NaN,-0.0,0.0,8.32,18.899,0.0,54.429,32.904,0.0,0.0,0.0,-1.0,183.329
ExperimentResult5508396715113446792.obj,45.475,NaN,-0.0,0.0,NaN,-0.0,0.0,6.373,13.677,0.0,23.471,12.086,0.0,0.0,0.0,-1.0,104.004
ExperimentResult2942791973550210728.obj,33.035,NaN,-0.0,0.0,NaN,-0.0,0.0,5.462,11.881,0.0,21.143,11.476,0.0,0.0,0.0,-1.0,86.108
ExperimentResult1930511113359433061.obj,60.571,NaN,-0.0,0.0,NaN,-0.0,0.0,8.387,18.726,0.0,40.069,25.306,0.0,0.0,0.0,-1.0,160.024
ExperimentResult2162235599566568101.obj,28.107,NaN,-0.0,0.0,NaN,-0.0,0.0,2.228,6.321,0.0,12.529,6.133,0.0,0.0,0.0,-1.0,59.62
ExperimentResult1414377105143571555.obj,39.46,NaN,-0.0,0.0,NaN,-0.0,0.0,4.629,10.004,0.0,19.265,10.016,0.0,0.0,0.0,-1.0,87.087
ExperimentResult6119655666379881533.obj,51.411,NaN,-0.0,0.0,NaN,-0.0,0.0,7.949,18.853,0.0,32.565,15.727,0.0,0.0,0.0,-1.0,129.472
ExperimentResult68279794704561094.obj,36.7,NaN,-0.0,0.0,NaN,-0.0,0.0,4.21,8.902,0.0,18.98,7.989,0.0,0.0,0.0,-1.0,80.028
ExperimentResult1125541343027390032.obj,81.931,NaN,-0.0,0.0,NaN,-0.0,0.0,8.482,25.723,0.0,53.888,24.13,0.0,0.0,0.0,-1.0,204.441
ExperimentResult144905054248083446.obj,216.303,NaN,-0.0,0.0,NaN,-0.0,0.0,18.363,46.344,0.0,115.37,67.476,0.0,0.0,0.0,-1.0,467.664
ExperimentResult2638214982413140530.obj,81.996,NaN,-0.0,0.0,NaN,-0.0,0.0,7.795,21.243,0.0,52.918,29.036,0.0,0.0,0.0,-1.0,196.556
ExperimentResult4518880962104206452.obj,112.885,NaN,-0.0,0.0,NaN,-0.0,0.0,9.122,24.661,0.0,47.63,22.594,0.0,0.0,0.0,-1.0,225.61
ExperimentResult4255998027579736549.obj,241.767,NaN,-0.0,0.0,NaN,-0.0,0.0,24.399,38.306,0.0,154.084,73.31,0.0,0.0,0.0,-1.0,535.751
ExperimentResult4132376228035682770.obj,29.526,NaN,-0.0,0.0,NaN,-0.0,0.0,2.808,7.288,0.0,13.986,7.571,0.0,0.0,0.0,-1.0,64.36
ExperimentResult3952677680271496530.obj,34.656,NaN,-0.0,0.0,NaN,-0.0,0.0,4.046,8.797,0.0,18.366,7.568,0.0,0.0,0.0,-1.0,76.722
ExperimentResult2301545374193990228.obj,88.695,NaN,-0.0,0.0,NaN,-0.0,0.0,8.482,22.648,0.0,53.112,28.118,0.0,0.0,0.0,-1.0,205.137
ExperimentResult7564430129581218785.obj,209.195,NaN,-0.0,0.0,NaN,-0.0,0.0,22.883,67.46,0.0,136.405,70.61,0.0,0.0,0.0,-1.0,510.399
ExperimentResult5830958245755806396.obj,47.312,NaN,-0.0,0.0,NaN,-0.0,0.0,5.821,13.101,0.0,25.634,12.862,0.0,0.0,0.0,-1.0,107.81
ExperimentResult8911868146871523488.obj,36.192,NaN,-0.0,0.0,NaN,-0.0,0.0,5.738,12.281,0.0,20.844,11.477,0.0,0.0,0.0,-1.0,89.165
ExperimentResult7409483332121965282.obj,203.947,NaN,-0.0,0.0,NaN,-0.0,0.0,25.327,43.317,0.0,87.348,59.352,0.0,0.0,0.0,-1.0,422.862
ExperimentResult4321177489278875779.obj,541.901,NaN,-0.0,0.0,NaN,-0.0,0.0,125.089,20.219,0.0,332.517,24.149,0.0,0.0,0.0,-1.0,1049.584
ExperimentResult2432824813522454796.obj,218.185,NaN,-0.0,0.0,NaN,-0.0,0.0,29.081,43.443,0.0,151.599,62.187,0.0,0.0,0.0,-1.0,509.813
ExperimentResult8674333363859163879.obj,90.347,NaN,-0.0,0.0,NaN,-0.0,0.0,9.408,22.862,0.0,49.327,25.253,0.0,0.0,0.0,-1.0,200.481
ExperimentResult5903928349864131205.obj,51.259,NaN,-0.0,0.0,NaN,-0.0,0.0,5.338,13.012,0.0,33.137,17.524,0.0,0.0,0.0,-1.0,124.479
ExperimentResult7965523494728673772.obj,46.084,NaN,-0.0,0.0,NaN,-0.0,0.0,5.893,13.027,0.0,24.918,12.452,0.0,0.0,0.0,-1.0,105.019
ExperimentResult6041368461628382469.obj,196.072,NaN,-0.0,0.0,NaN,-0.0,0.0,18.495,41.128,0.0,92.078,44.711,0.0,0.0,0.0,-1.0,396.155
ExperimentResult3391344880723800256.obj,502.638,NaN,-0.0,0.0,NaN,-0.0,0.0,61.883,150.119,0.0,375.168,75.601,0.0,0.0,0.0,-1.0,1168.632
ExperimentResult6818781188491079365.obj,37.9,NaN,-0.0,0.0,NaN,-0.0,0.0,5.438,10.859,0.0,22.815,10.759,0.0,0.0,0.0,-1.0,90.844
ExperimentResult1830707693527756451.obj,525.112,NaN,-0.0,0.0,NaN,-0.0,0.0,116.945,86.16,0.0,291.993,78.026,0.0,0.0,0.0,-1.0,1101.525
ExperimentResult4610815828685814570.obj,125.166,NaN,-0.0,0.0,NaN,-0.0,0.0,18.385,37.454,0.0,84.546,63.139,0.0,0.0,0.0,-1.0,332.978
ExperimentResult2094712050519304782.obj,136.059,NaN,-0.0,0.0,NaN,-0.0,0.0,12.01,31.186,0.0,96.023,25.868,0.0,0.0,0.0,-1.0,306.318
ExperimentResult7258888460956978369.obj,32.65,NaN,-0.0,0.0,NaN,-0.0,0.0,4.74,10.082,0.0,19.81,7.522,0.0,0.0,0.0,-1.0,78.107
ExperimentResult1425950830998859300.obj,45.382,NaN,-0.0,0.0,NaN,-0.0,0.0,5.954,12.96,0.0,23.332,11.858,0.0,0.0,0.0,-1.0,103.08
ExperimentResult143126536275533227.obj,25.84,NaN,-0.0,0.0,NaN,-0.0,0.0,2.894,6.307,0.0,10.673,6.424,0.0,0.0,0.0,-1.0,55.965
ExperimentResult312015553280915157.obj,431.983,NaN,-0.0,0.0,NaN,-0.0,0.0,39.246,129.909,0.0,270.471,85.209,0.0,0.0,0.0,-1.0,961.463
ExperimentResult692274727154723169.obj,1222.216,NaN,-0.0,0.0,NaN,-0.0,0.0,72.411,18.339,0.0,656.25,20.433,0.0,0.0,0.0,-1.0,1992.777
ExperimentResult4327580313726658723.obj,78.315,NaN,-0.0,0.0,NaN,-0.0,0.0,8.25,20.198,0.0,42.592,25.852,0.0,0.0,0.0,-1.0,180.306
ExperimentResult2745245923348372377.obj,121.557,NaN,-0.0,0.0,NaN,-0.0,0.0,12.678,16.332,0.0,71.694,28.417,0.0,0.0,0.0,-1.0,254.613
ExperimentResult1105154625301861447.obj,652.284,NaN,-0.0,0.0,NaN,-0.0,0.0,68.348,26.124,0.0,340.6,24.291,0.0,0.0,0.0,-1.0,1118.698
ExperimentResult4141255720882760642.obj,94.382,NaN,-0.0,0.0,NaN,-0.0,0.0,9.334,23.877,0.0,60.16,36.33,0.0,0.0,0.0,-1.0,227.643
ExperimentResult2923063472633559307.obj,42.885,NaN,-0.0,0.0,NaN,-0.0,0.0,5.04,12.291,0.0,23.123,15.863,0.0,0.0,0.0,-1.0,101.864
ExperimentResult666809199476767392.obj,29.277,NaN,-0.0,0.0,NaN,-0.0,0.0,2.54,5.936,0.0,11.178,5.559,0.0,0.0,0.0,-1.0,58.317
ExperimentResult2106602648210045910.obj,54.423,NaN,-0.0,0.0,NaN,-0.0,0.0,7.222,19.08,0.0,38.598,25.113,0.0,0.0,0.0,-1.0,148.48
ExperimentResult1700231312376293695.obj,32.164,NaN,-0.0,0.0,NaN,-0.0,0.0,3.051,7.001,0.0,11.963,7.727,0.0,0.0,0.0,-1.0,65.732
ExperimentResult8196837987902768107.obj,35.5,NaN,-0.0,0.0,NaN,-0.0,0.0,5.062,11.391,0.0,22.078,10.855,0.0,0.0,0.0,-1.0,88.045
ExperimentResult3732942579215113694.obj,113.642,NaN,-0.0,0.0,NaN,-0.0,0.0,13.972,28.37,0.0,53.334,32.944,0.0,0.0,0.0,-1.0,246.272
ExperimentResult5581840381137329500.obj,67.394,NaN,-0.0,0.0,NaN,-0.0,0.0,9.622,24.137,0.0,45.206,25.405,0.0,0.0,0.0,-1.0,177.355
ExperimentResult5614708438712007692.obj,198.906,NaN,-0.0,0.0,NaN,-0.0,0.0,14.22,31.448,0.0,88.201,55.953,0.0,0.0,0.0,-1.0,392.53
ExperimentResult6697847335838629785.obj,1033.917,NaN,-0.0,0.0,NaN,-0.0,0.0,237.368,128.485,0.0,622.059,128.563,0.0,0.0,0.0,-1.0,2153.894
ExperimentResult2576952078028667865.obj,47.865,NaN,-0.0,0.0,NaN,-0.0,0.0,6.002,12.908,0.0,24.887,13.216,0.0,0.0,0.0,-1.0,108.961
ExperimentResult8400535454305689900.obj,76.349,NaN,-0.0,0.0,NaN,-0.0,0.0,8.616,19.452,0.0,35.818,19.702,0.0,0.0,0.0,-1.0,163.909
ExperimentResult4532462623406068659.obj,179.239,NaN,-0.0,0.0,NaN,-0.0,0.0,19.14,27.52,0.0,76.323,26.145,0.0,0.0,0.0,-1.0,331.766
ExperimentResult3023211032733328834.obj,253.342,NaN,-0.0,0.0,NaN,-0.0,0.0,26.397,28.733,0.0,146.887,25.132,0.0,0.0,0.0,-1.0,485.926
ExperimentResult121883762329493795.obj,35.891,NaN,-0.0,0.0,NaN,-0.0,0.0,4.635,9.935,0.0,17.744,9.837,0.0,0.0,0.0,-1.0,81.315
ExperimentResult7204259999810960623.obj,26.939,NaN,-0.0,0.0,NaN,-0.0,0.0,2.294,6.373,0.0,10.782,4.02,0.0,0.0,0.0,-1.0,56.133
ExperimentResult530570467940444385.obj,26.219,NaN,-0.0,0.0,NaN,-0.0,0.0,2.419,5.189,0.0,10.275,5.778,0.0,0.0,0.0,-1.0,53.165
ExperimentResult7925330456411651158.obj,1259.562,NaN,-0.0,0.0,NaN,-0.0,0.0,91.439,17.389,0.0,603.661,15.034,0.0,0.0,0.0,-1.0,1989.756
ExperimentResult2457700517096085402.obj,946.548,NaN,-0.0,0.0,NaN,-0.0,0.0,78.179,264.757,0.0,531.659,109.242,0.0,0.0,0.0,-1.0,1933.475
ExperimentResult3405777319043959157.obj,254.917,NaN,-0.0,0.0,NaN,-0.0,0.0,22.532,49.7,0.0,177.874,85.143,0.0,0.0,0.0,-1.0,594.379
ExperimentResult4673948542556062461.obj,35.337,NaN,-0.0,0.0,NaN,-0.0,0.0,4.891,11.539,0.0,22.322,10.851,0.0,0.0,0.0,-1.0,88.443
ExperimentResult340532531689525987.obj,1035.696,NaN,-0.0,0.0,NaN,-0.0,0.0,235.655,156.04,0.0,626.444,128.858,0.0,0.0,0.0,-1.0,2186.33
ExperimentResult4377553550842046765.obj,53.236,NaN,-0.0,0.0,NaN,-0.0,0.0,7.748,18.391,0.0,43.675,15.239,0.0,0.0,0.0,-1.0,140.851
ExperimentResult5124135076823886730.obj,1236.554,NaN,-0.0,0.0,NaN,-0.0,0.0,91.122,22.824,0.0,580.776,25.415,0.0,0.0,0.0,-1.0,1960.035
ExperimentResult8638777861428551080.obj,660.493,NaN,-0.0,0.0,NaN,-0.0,0.0,42.685,19.016,0.0,365.619,23.193,0.0,0.0,0.0,-1.0,1116.183
ExperimentResult327401795129909813.obj,93.16,NaN,-0.0,0.0,NaN,-0.0,0.0,7.693,19.385,0.0,53.22,31.6,0.0,0.0,0.0,-1.0,208.258
ExperimentResult5315361315033198840.obj,426.337,NaN,-0.0,0.0,NaN,-0.0,0.0,32.374,121.215,0.0,250.348,78.401,0.0,0.0,0.0,-1.0,912.668
ExperimentResult1757548346502007927.obj,92.685,NaN,-0.0,0.0,NaN,-0.0,0.0,13.818,24.643,0.0,95.449,22.627,0.0,0.0,0.0,-1.0,256.302
ExperimentResult3586545737646748571.obj,244.067,NaN,-0.0,0.0,NaN,-0.0,0.0,25.972,44.632,0.0,163.192,60.987,0.0,0.0,0.0,-1.0,541.811
ExperimentResult8301915331325583175.obj,102.748,NaN,-0.0,0.0,NaN,-0.0,0.0,12.483,26.279,0.0,75.852,31.595,0.0,0.0,0.0,-1.0,256.836
ExperimentResult6014904081644735605.obj,29.489,NaN,-0.0,0.0,NaN,-0.0,0.0,2.857,6.612,0.0,14.435,7.581,0.0,0.0,0.0,-1.0,64.912
ExperimentResult7856605284027019886.obj,57.891,NaN,-0.0,0.0,NaN,-0.0,0.0,8.651,21.173,0.0,39.706,23.618,0.0,0.0,0.0,-1.0,158.259
ExperimentResult1482392105010690067.obj,420.884,NaN,-0.0,0.0,NaN,-0.0,0.0,52.39,137.116,0.0,251.329,105.281,0.0,0.0,0.0,-1.0,972.853
ExperimentResult9021466804260505494.obj,257.983,NaN,-0.0,0.0,NaN,-0.0,0.0,26.078,66.772,0.0,162.098,105.941,0.0,0.0,0.0,-1.0,623.718
ExperimentResult3815029198540617243.obj,92.514,NaN,-0.0,0.0,NaN,-0.0,0.0,9.029,21.873,0.0,61.748,24.677,0.0,0.0,0.0,-1.0,217.362
ExperimentResult6102092026941247856.obj,32.096,NaN,-0.0,0.0,NaN,-0.0,0.0,4.03,8.99,0.0,16.083,6.982,0.0,0.0,0.0,-1.0,71.104
ExperimentResult2333310180137511980.obj,2038.712,NaN,-0.0,0.0,NaN,-0.0,0.0,125.837,312.744,0.0,1022.804,211.152,0.0,0.0,0.0,-1.0,3715.528
ExperimentResult7910034481500498563.obj,1040.588,NaN,-0.0,0.0,NaN,-0.0,0.0,79.633,328.731,0.0,641.532,181.516,0.0,0.0,0.0,-1.0,2276.18
ExperimentResult6737171584853913948.obj,207.219,NaN,-0.0,0.0,NaN,-0.0,0.0,24.476,64.405,0.0,171.887,56.087,0.0,0.0,0.0,-1.0,527.066
ExperimentResult3908058039780313276.obj,1011.391,NaN,-0.0,0.0,NaN,-0.0,0.0,229.945,190.012,0.0,658.464,149.916,0.0,0.0,0.0,-1.0,2243.888
ExperimentResult7412789747793692751.obj,101.995,NaN,-0.0,0.0,NaN,-0.0,0.0,8.37,20.276,0.0,54.251,28.72,0.0,0.0,0.0,-1.0,217.082
ExperimentResult547515892004878488.obj,268.959,NaN,-0.0,0.0,NaN,-0.0,0.0,30.761,56.549,0.0,136.397,69.889,0.0,0.0,0.0,-1.0,566.196
ExperimentResult5977169783635700644.obj,610.748,NaN,-0.0,0.0,NaN,-0.0,0.0,62.395,24.064,0.0,300.935,27.902,0.0,0.0,0.0,-1.0,1028.65
ExperimentResult217644141717719474.obj,162.989,NaN,-0.0,0.0,NaN,-0.0,0.0,18.49,24.332,0.0,119.917,25.353,0.0,0.0,0.0,-1.0,358.085
ExperimentResult2298600487409718977.obj,24.973,NaN,-0.0,0.0,NaN,-0.0,0.0,2.211,5.024,0.0,10.668,6.776,0.0,0.0,0.0,-1.0,53.242
ExperimentResult5723486213780701086.obj,156.943,NaN,-0.0,0.0,NaN,-0.0,0.0,15.205,37.307,0.0,72.227,43.627,0.0,0.0,0.0,-1.0,328.63
ExperimentResult6062633294849376681.obj,110.161,NaN,-0.0,0.0,NaN,-0.0,0.0,11.485,19.727,0.0,76.218,21.146,0.0,0.0,0.0,-1.0,246.897
ExperimentResult7529334885059884955.obj,94.846,NaN,-0.0,0.0,NaN,-0.0,0.0,8.864,21.138,0.0,57.999,34.396,0.0,0.0,0.0,-1.0,220.501
ExperimentResult5179309066481318483.obj,2005.459,NaN,-0.0,0.0,NaN,-0.0,0.0,121.804,317.134,0.0,1087.219,161.396,0.0,0.0,0.0,-1.0,3696.332
ExperimentResult2984659554469121994.obj,1021.909,NaN,-0.0,0.0,NaN,-0.0,0.0,240.733,202.977,0.0,747.3,182.672,0.0,0.0,0.0,-1.0,2400.046
ExperimentResult8479325189211114154.obj,31.855,NaN,-0.0,0.0,NaN,-0.0,0.0,3.006,7.391,0.0,13.716,7.61,0.0,0.0,0.0,-1.0,66.741
ExperimentResult497675882229179665.obj,926.369,NaN,-0.0,0.0,NaN,-0.0,0.0,85.572,273.109,0.0,490.572,93.033,0.0,0.0,0.0,-1.0,1871.731
ExperimentResult7550808215783253994.obj,35.022,NaN,-0.0,0.0,NaN,-0.0,0.0,4.0,8.756,0.0,18.391,7.532,0.0,0.0,0.0,-1.0,76.565
ExperimentResult5193449403991376540.obj,2078.32,NaN,-0.0,0.0,NaN,-0.0,0.0,131.397,347.967,0.0,1041.298,166.534,0.0,0.0,0.0,-1.0,3768.91
ExperimentResult5924470242835877475.obj,60.798,NaN,-0.0,0.0,NaN,-0.0,0.0,7.9,28.911,0.0,38.91,29.644,0.0,0.0,0.0,-1.0,171.217
ExperimentResult2056139203184856278.obj,104.308,NaN,-0.0,0.0,NaN,-0.0,0.0,11.523,25.668,0.0,66.097,25.009,0.0,0.0,0.0,-1.0,237.757
ExperimentResult4778380974399617360.obj,29.042,NaN,-0.0,0.0,NaN,-0.0,0.0,2.426,5.815,0.0,12.461,6.796,0.0,0.0,0.0,-1.0,60.425
ExperimentResult5961473418970152788.obj,207.194,NaN,-0.0,0.0,NaN,-0.0,0.0,22.494,42.386,0.0,160.234,73.33,0.0,0.0,0.0,-1.0,515.387
ExperimentResult6574688186765840576.obj,42.723,NaN,-0.0,0.0,NaN,-0.0,0.0,5.36,12.093,0.0,29.3,15.881,0.0,0.0,0.0,-1.0,108.344
ExperimentResult6530394674670540220.obj,100.79,NaN,-0.0,0.0,NaN,-0.0,0.0,9.568,25.483,0.0,90.409,30.388,0.0,0.0,0.0,-1.0,259.943
ExperimentResult6268541228527195394.obj,120.149,NaN,-0.0,0.0,NaN,-0.0,0.0,11.626,26.975,0.0,75.948,29.698,0.0,0.0,0.0,-1.0,267.358
ExperimentResult3087634225643853681.obj,636.69,NaN,-0.0,0.0,NaN,-0.0,0.0,67.409,28.619,0.0,405.27,25.642,0.0,0.0,0.0,-1.0,1169.755
ExperimentResult7755361710857608274.obj,167.837,NaN,-0.0,0.0,NaN,-0.0,0.0,15.1,36.929,0.0,83.924,60.83,0.0,0.0,0.0,-1.0,367.615
ExperimentResult7404952707306782906.obj,937.85,NaN,-0.0,0.0,NaN,-0.0,0.0,56.669,239.25,0.0,537.371,117.366,0.0,0.0,0.0,-1.0,1892.063
ExperimentResult7940916628504844286.obj,2065.434,NaN,-0.0,0.0,NaN,-0.0,0.0,118.539,293.444,0.0,1032.061,179.1,0.0,0.0,0.0,-1.0,3691.959
ExperimentResult6237019203717614495.obj,173.375,NaN,-0.0,0.0,NaN,-0.0,0.0,21.797,20.854,0.0,161.801,21.764,0.0,0.0,0.0,-1.0,412.1
ExperimentResult2059852516273251656.obj,28.585,NaN,-0.0,0.0,NaN,-0.0,0.0,2.826,7.195,0.0,13.685,7.17,0.0,0.0,0.0,-1.0,62.671
ExperimentResult6405398785195658837.obj,296.624,NaN,-0.0,0.0,NaN,-0.0,0.0,21.239,20.587,0.0,202.662,21.034,0.0,0.0,0.0,-1.0,565.019
ExperimentResult4958923934906018245.obj,78.664,NaN,-0.0,0.0,NaN,-0.0,0.0,8.436,20.319,0.0,52.538,25.454,0.0,0.0,0.0,-1.0,190.744
ExperimentResult6211958879049406100.obj,122.481,NaN,-0.0,0.0,NaN,-0.0,0.0,13.166,32.506,0.0,100.618,42.1,0.0,0.0,0.0,-1.0,314.159
ExperimentResult4653143131297796049.obj,26.889,NaN,-0.0,0.0,NaN,-0.0,0.0,2.628,5.308,0.0,10.075,5.927,0.0,0.0,0.0,-1.0,53.983
ExperimentResult2315732667104705315.obj,420.357,NaN,-0.0,0.0,NaN,-0.0,0.0,41.496,151.178,0.0,285.02,91.422,0.0,0.0,0.0,-1.0,993.035
ExperimentResult7942101952469148545.obj,422.632,NaN,-0.0,0.0,NaN,-0.0,0.0,62.939,125.284,0.0,296.506,82.513,0.0,0.0,0.0,-1.0,993.291
ExperimentResult4428874628411597295.obj,1010.558,NaN,-0.0,0.0,NaN,-0.0,0.0,78.277,285.423,0.0,666.19,131.666,0.0,0.0,0.0,-1.0,2175.282
ExperimentResult6107833807940660858.obj,425.789,NaN,-0.0,0.0,NaN,-0.0,0.0,33.447,120.806,0.0,315.915,78.488,0.0,0.0,0.0,-1.0,977.83
ExperimentResult7073543260027120567.obj,216.338,NaN,-0.0,0.0,NaN,-0.0,0.0,15.305,31.653,0.0,114.693,42.59,0.0,0.0,0.0,-1.0,424.554
ExperimentResult8243091073143373964.obj,45.638,NaN,-0.0,0.0,NaN,-0.0,0.0,6.049,13.499,0.0,25.44,11.918,0.0,0.0,0.0,-1.0,105.371
ExperimentResult7129067084854976163.obj,63.712,NaN,-0.0,0.0,NaN,-0.0,0.0,9.212,21.571,0.0,41.79,25.355,0.0,0.0,0.0,-1.0,165.565
ExperimentResult280394351465572076.obj,53.631,NaN,-0.0,0.0,NaN,-0.0,0.0,7.055,18.175,0.0,29.816,14.978,0.0,0.0,0.0,-1.0,126.414
ExperimentResult2091525866550057322.obj,98.624,NaN,-0.0,0.0,NaN,-0.0,0.0,10.426,27.406,0.0,65.53,27.074,0.0,0.0,0.0,-1.0,232.594
ExperimentResult1699049521189685007.obj,124.041,NaN,-0.0,0.0,NaN,-0.0,0.0,11.805,32.31,0.0,81.245,53.196,0.0,0.0,0.0,-1.0,306.105
ExperimentResult616944411826368923.obj,310.788,NaN,-0.0,0.0,NaN,-0.0,0.0,29.631,18.467,0.0,182.703,19.06,0.0,0.0,0.0,-1.0,569.036
ExperimentResult2141161431988553712.obj,227.924,NaN,-0.0,0.0,NaN,-0.0,0.0,19.673,62.309,0.0,189.431,62.057,0.0,0.0,0.0,-1.0,565.057
ExperimentResult823288873816992812.obj,46.903,NaN,-0.0,0.0,NaN,-0.0,0.0,7.775,19.782,0.0,35.972,17.054,0.0,0.0,0.0,-1.0,131.337
ExperimentResult1365521454770585864.obj,92.715,NaN,-0.0,0.0,NaN,-0.0,0.0,8.216,24.457,0.0,56.487,29.471,0.0,0.0,0.0,-1.0,215.25
ExperimentResult637015649069767508.obj,913.358,NaN,-0.0,0.0,NaN,-0.0,0.0,66.033,253.227,0.0,498.995,94.429,0.0,0.0,0.0,-1.0,1829.034
ExperimentResult1729531107955158002.obj,60.728,NaN,-0.0,0.0,NaN,-0.0,0.0,8.808,20.443,0.0,50.108,27.411,0.0,0.0,0.0,-1.0,170.921
ExperimentResult4831698213294661244.obj,175.093,NaN,-0.0,0.0,NaN,-0.0,0.0,15.791,23.298,0.0,113.733,24.033,0.0,0.0,0.0,-1.0,357.418
ExperimentResult7123374581012586927.obj,259.012,NaN,-0.0,0.0,NaN,-0.0,0.0,26.008,27.273,0.0,164.753,24.994,0.0,0.0,0.0,-1.0,506.917
ExperimentResult5038523598933006041.obj,522.285,NaN,-0.0,0.0,NaN,-0.0,0.0,130.381,88.742,0.0,284.241,72.558,0.0,0.0,0.0,-1.0,1101.339
ExperimentResult2665150810538945038.obj,177.989,NaN,-0.0,0.0,NaN,-0.0,0.0,16.213,18.473,0.0,95.321,23.495,0.0,0.0,0.0,-1.0,335.946
ExperimentResult8613753318662964984.obj,54.24,NaN,-0.0,0.0,NaN,-0.0,0.0,7.061,19.316,0.0,38.1,26.299,0.0,0.0,0.0,-1.0,149.753
ExperimentResult5018407435231628624.obj,34.712,NaN,-0.0,0.0,NaN,-0.0,0.0,5.371,11.698,0.0,20.444,11.944,0.0,0.0,0.0,-1.0,86.947
ExperimentResult1312273557315403659.obj,256.433,NaN,-0.0,0.0,NaN,-0.0,0.0,29.818,54.856,0.0,153.587,80.45,0.0,0.0,0.0,-1.0,579.24
ExperimentResult3027935130066972852.obj,418.973,NaN,-0.0,0.0,NaN,-0.0,0.0,31.989,128.739,0.0,339.374,99.41,0.0,0.0,0.0,-1.0,1022.49
ExperimentResult7229997079154917021.obj,32.999,NaN,-0.0,0.0,NaN,-0.0,0.0,2.944,7.652,0.0,12.096,8.027,0.0,0.0,0.0,-1.0,68.698
ExperimentResult2057185060418494751.obj,1021.545,NaN,-0.0,0.0,NaN,-0.0,0.0,251.987,198.227,0.0,704.642,170.87,0.0,0.0,0.0,-1.0,2351.457
ExperimentResult4862313799524965258.obj,86.065,NaN,-0.0,0.0,NaN,-0.0,0.0,8.233,22.257,0.0,49.45,26.972,0.0,0.0,0.0,-1.0,198.353
ExperimentResult6467922437510917570.obj,275.512,NaN,-0.0,0.0,NaN,-0.0,0.0,25.113,19.739,0.0,158.612,27.565,0.0,0.0,0.0,-1.0,509.795
ExperimentResult1501523225355598768.obj,75.0,NaN,-0.0,0.0,NaN,-0.0,0.0,7.142,18.83,0.0,38.869,18.861,0.0,0.0,0.0,-1.0,164.741
ExperimentResult1451610184867365223.obj,247.204,NaN,-0.0,0.0,NaN,-0.0,0.0,18.974,63.18,0.0,149.923,82.192,0.0,0.0,0.0,-1.0,565.547
ExperimentResult5346905388095010202.obj,78.463,NaN,-0.0,0.0,NaN,-0.0,0.0,8.268,20.682,0.0,47.458,28.252,0.0,0.0,0.0,-1.0,186.062
ExperimentResult3059748649376771941.obj,233.43,NaN,-0.0,0.0,NaN,-0.0,0.0,21.95,58.569,0.0,152.071,60.955,0.0,0.0,0.0,-1.0,530.746
ExperimentResult4580416813891690255.obj,132.098,NaN,-0.0,0.0,NaN,-0.0,0.0,12.845,30.222,0.0,79.307,39.853,0.0,0.0,0.0,-1.0,297.711
ExperimentResult3026942368631557596.obj,56.324,NaN,-0.0,0.0,NaN,-0.0,0.0,8.478,18.726,0.0,37.24,26.1,0.0,0.0,0.0,-1.0,152.767
ExperimentResult6135639554314611345.obj,899.109,NaN,-0.0,0.0,NaN,-0.0,0.0,66.202,244.678,0.0,493.334,92.262,0.0,0.0,0.0,-1.0,1799.122
ExperimentResult2593342186101784583.obj,76.696,NaN,-0.0,0.0,NaN,-0.0,0.0,8.127,21.735,0.0,48.767,30.217,0.0,0.0,0.0,-1.0,188.626
ExperimentResult3765412225979741940.obj,2042.095,NaN,-0.0,0.0,NaN,-0.0,0.0,115.86,317.979,0.0,1025.67,173.552,0.0,0.0,0.0,-1.0,3678.544
ExperimentResult7777453891375556649.obj,244.229,NaN,-0.0,0.0,NaN,-0.0,0.0,23.321,49.444,0.0,190.975,71.585,0.0,0.0,0.0,-1.0,583.0
ExperimentResult6985063293466418405.obj,44.018,NaN,-0.0,0.0,NaN,-0.0,0.0,5.469,12.081,0.0,23.571,15.206,0.0,0.0,0.0,-1.0,102.908
ExperimentResult7051213730219088772.obj,268.924,NaN,-0.0,0.0,NaN,-0.0,0.0,36.841,26.525,0.0,161.474,25.504,0.0,0.0,0.0,-1.0,523.528
ExperimentResult4672916210374009168.obj,1030.667,NaN,-0.0,0.0,NaN,-0.0,0.0,235.637,164.631,0.0,624.569,158.006,0.0,0.0,0.0,-1.0,2217.415
ExperimentResult3314078796392301776.obj,383.59,NaN,-0.0,0.0,NaN,-0.0,0.0,37.777,26.03,0.0,233.554,28.324,0.0,0.0,0.0,-1.0,712.899
ExperimentResult2736895256805965200.obj,45.484,NaN,-0.0,0.0,NaN,-0.0,0.0,5.864,12.204,0.0,25.34,15.794,0.0,0.0,0.0,-1.0,107.521
ExperimentResult207628080403998270.obj,130.736,NaN,-0.0,0.0,NaN,-0.0,0.0,12.053,28.627,0.0,79.53,39.492,0.0,0.0,0.0,-1.0,293.718
ExperimentResult864585987984344241.obj,77.221,NaN,-0.0,0.0,NaN,-0.0,0.0,7.987,21.118,0.0,47.893,22.503,0.0,0.0,0.0,-1.0,183.848
ExperimentResult2012869742258973234.obj,32.063,NaN,-0.0,0.0,NaN,-0.0,0.0,3.354,7.044,0.0,12.481,7.406,0.0,0.0,0.0,-1.0,65.498
ExperimentResult440849188898740498.obj,88.724,NaN,-0.0,0.0,NaN,-0.0,0.0,8.811,25.594,0.0,50.722,27.709,0.0,0.0,0.0,-1.0,206.285
ExperimentResult6443107833922061987.obj,91.388,NaN,-0.0,0.0,NaN,-0.0,0.0,10.451,23.527,0.0,61.941,40.286,0.0,0.0,0.0,-1.0,231.103
ExperimentResult6176001937698334595.obj,131.152,NaN,-0.0,0.0,NaN,-0.0,0.0,10.501,24.621,0.0,63.739,23.566,0.0,0.0,0.0,-1.0,259.635
ExperimentResult1983578688705617279.obj,29.52,NaN,-0.0,0.0,NaN,-0.0,0.0,2.682,7.126,0.0,14.041,7.582,0.0,0.0,0.0,-1.0,64.223
ExperimentResult7011905286821176313.obj,178.628,NaN,-0.0,0.0,NaN,-0.0,0.0,16.685,36.015,0.0,94.66,39.11,0.0,0.0,0.0,-1.0,369.217
ExperimentResult2526253803120779711.obj,99.942,NaN,-0.0,0.0,NaN,-0.0,0.0,11.046,25.617,0.0,68.485,26.178,0.0,0.0,0.0,-1.0,235.875
ExperimentResult4424384612298152255.obj,78.711,NaN,-0.0,0.0,NaN,-0.0,0.0,8.567,23.28,0.0,43.513,25.9,0.0,0.0,0.0,-1.0,186.708
ExperimentResult4291717875622067274.obj,76.63,NaN,-0.0,0.0,NaN,-0.0,0.0,8.056,20.067,0.0,64.847,21.682,0.0,0.0,0.0,-1.0,199.232
ExperimentResult4621373366690995149.obj,101.46,NaN,-0.0,0.0,NaN,-0.0,0.0,11.119,25.183,0.0,72.454,27.866,0.0,0.0,0.0,-1.0,242.544
ExperimentResult5070449813534820496.obj,146.254,NaN,-0.0,0.0,NaN,-0.0,0.0,16.572,34.901,0.0,79.168,54.687,0.0,0.0,0.0,-1.0,335.077
ExperimentResult5986465407012777702.obj,24.914,NaN,-0.0,0.0,NaN,-0.0,0.0,2.388,5.12,0.0,10.397,5.672,0.0,0.0,0.0,-1.0,53.8
ExperimentResult1532309744285224868.obj,51.325,NaN,-0.0,0.0,NaN,-0.0,0.0,5.289,12.785,0.0,28.593,17.882,0.0,0.0,0.0,-1.0,122.09
ExperimentResult7718696674653327693.obj,176.466,NaN,-0.0,0.0,NaN,-0.0,0.0,16.464,22.914,0.0,140.781,21.513,0.0,0.0,0.0,-1.0,382.644
ExperimentResult3864758798230283470.obj,87.845,NaN,-0.0,0.0,NaN,-0.0,0.0,7.959,20.657,0.0,60.356,23.494,0.0,0.0,0.0,-1.0,208.053
ExperimentResult5889637985320439298.obj,28.22,NaN,-0.0,0.0,NaN,-0.0,0.0,2.827,5.95,0.0,13.105,6.954,0.0,0.0,0.0,-1.0,59.821
ExperimentResult1271102854517994784.obj,203.215,NaN,-0.0,0.0,NaN,-0.0,0.0,23.704,46.615,0.0,152.755,50.544,0.0,0.0,0.0,-1.0,482.91
ExperimentResult2120926337811181038.obj,506.225,NaN,-0.0,0.0,NaN,-0.0,0.0,113.39,71.018,0.0,327.885,87.765,0.0,0.0,0.0,-1.0,1109.129
ExperimentResult5239136817807288573.obj,75.966,NaN,-0.0,0.0,NaN,-0.0,0.0,8.321,20.855,0.0,52.511,25.972,0.0,0.0,0.0,-1.0,188.068
ExperimentResult770462182283808028.obj,269.208,NaN,-0.0,0.0,NaN,-0.0,0.0,29.121,25.523,0.0,180.304,20.267,0.0,0.0,0.0,-1.0,527.545
ExperimentResult5991944385085458221.obj,302.681,NaN,-0.0,0.0,NaN,-0.0,0.0,24.511,21.531,0.0,161.894,26.013,0.0,0.0,0.0,-1.0,544.928
ExperimentResult6583628992127210213.obj,227.836,NaN,-0.0,0.0,NaN,-0.0,0.0,22.237,43.17,0.0,154.549,54.532,0.0,0.0,0.0,-1.0,509.549
ExperimentResult5508054416216668172.obj,535.298,NaN,-0.0,0.0,NaN,-0.0,0.0,129.677,69.504,0.0,354.281,91.096,0.0,0.0,0.0,-1.0,1183.287
ExperimentResult2541590162905469940.obj,24.877,NaN,-0.0,0.0,NaN,-0.0,0.0,2.329,4.864,0.0,11.081,5.927,0.0,0.0,0.0,-1.0,54.75
ExperimentResult6523419638732631127.obj,89.461,NaN,-0.0,0.0,NaN,-0.0,0.0,7.885,20.743,0.0,57.193,23.933,0.0,0.0,0.0,-1.0,205.274
ExperimentResult5410702081758072280.obj,508.111,NaN,-0.0,0.0,NaN,-0.0,0.0,116.842,80.406,0.0,332.578,95.861,0.0,0.0,0.0,-1.0,1137.375
ExperimentResult1488000520007787576.obj,256.132,NaN,-0.0,0.0,NaN,-0.0,0.0,24.001,28.164,0.0,124.112,26.46,0.0,0.0,0.0,-1.0,462.956
ExperimentResult2815826568900851848.obj,134.361,NaN,-0.0,0.0,NaN,-0.0,0.0,11.747,27.997,0.0,97.736,40.6,0.0,0.0,0.0,-1.0,315.766
ExperimentResult4913124888708057110.obj,2018.54,NaN,-0.0,0.0,NaN,-0.0,0.0,112.481,311.421,0.0,1049.337,153.682,0.0,0.0,0.0,-1.0,3648.776
ExperimentResult4360777163467361476.obj,626.857,NaN,-0.0,0.0,NaN,-0.0,0.0,52.662,23.32,0.0,294.088,30.32,0.0,0.0,0.0,-1.0,1030.553
ExperimentResult7364676360679770740.obj,81.307,NaN,-0.0,0.0,NaN,-0.0,0.0,8.335,20.147,0.0,61.115,19.493,0.0,0.0,0.0,-1.0,197.252
ExperimentResult5961204718375014165.obj,256.248,NaN,-0.0,0.0,NaN,-0.0,0.0,20.722,43.201,0.0,171.381,71.591,0.0,0.0,0.0,-1.0,567.17
ExperimentResult6103817791518650752.obj,77.522,NaN,-0.0,0.0,NaN,-0.0,0.0,8.755,25.727,0.0,75.01,28.394,0.0,0.0,0.0,-1.0,218.628
ExperimentResult1494255173457585471.obj,34.881,NaN,-0.0,0.0,NaN,-0.0,0.0,4.449,9.774,0.0,19.305,7.502,0.0,0.0,0.0,-1.0,79.28
ExperimentResult3500610714066611831.obj,261.487,NaN,-0.0,0.0,NaN,-0.0,0.0,24.514,27.63,0.0,142.226,30.889,0.0,0.0,0.0,-1.0,490.127
ExperimentResult351039462170653078.obj,1221.675,NaN,-0.0,0.0,NaN,-0.0,0.0,75.549,21.219,0.0,615.137,27.866,0.0,0.0,0.0,-1.0,1964.808
ExperimentResult2865430533996906576.obj,109.884,NaN,-0.0,0.0,NaN,-0.0,0.0,13.754,32.291,0.0,109.948,26.79,0.0,0.0,0.0,-1.0,296.676
ExperimentResult1103381719091474365.obj,75.533,NaN,-0.0,0.0,NaN,-0.0,0.0,8.053,23.612,0.0,47.491,27.505,0.0,0.0,0.0,-1.0,186.471
ExperimentResult3239240476796201784.obj,921.615,NaN,-0.0,0.0,NaN,-0.0,0.0,80.858,297.915,0.0,530.093,124.955,0.0,0.0,0.0,-1.0,1958.65
ExperimentResult5036425009403675027.obj,44.692,NaN,-0.0,0.0,NaN,-0.0,0.0,5.679,11.95,0.0,24.007,15.326,0.0,0.0,0.0,-1.0,104.365
ExperimentResult7527782006820047469.obj,34.001,NaN,-0.0,0.0,NaN,-0.0,0.0,4.049,10.814,0.0,19.24,10.797,0.0,0.0,0.0,-1.0,82.007
ExperimentResult2536285111346723016.obj,194.412,NaN,-0.0,0.0,NaN,-0.0,0.0,16.336,28.975,0.0,112.166,26.778,0.0,0.0,0.0,-1.0,382.175
ExperimentResult7494256506515978592.obj,92.637,NaN,-0.0,0.0,NaN,-0.0,0.0,9.924,23.595,0.0,61.796,33.401,0.0,0.0,0.0,-1.0,224.407
ExperimentResult6023303514950088748.obj,214.177,NaN,-0.0,0.0,NaN,-0.0,0.0,13.789,29.513,0.0,95.726,54.93,0.0,0.0,0.0,-1.0,411.86
ExperimentResult7046184508784607930.obj,88.447,NaN,-0.0,0.0,NaN,-0.0,0.0,7.997,19.783,0.0,38.212,23.012,0.0,0.0,0.0,-1.0,186.673
ExperimentResult4094368634834489207.obj,992.565,NaN,-0.0,0.0,NaN,-0.0,0.0,223.975,123.984,0.0,633.377,129.647,0.0,0.0,0.0,-1.0,2106.841
ExperimentResult1605340984710688998.obj,121.15,NaN,-0.0,0.0,NaN,-0.0,0.0,18.711,42.012,0.0,83.899,57.28,0.0,0.0,0.0,-1.0,326.669
ExperimentResult6628343270185237126.obj,130.798,NaN,-0.0,0.0,NaN,-0.0,0.0,12.506,32.071,0.0,87.37,46.075,0.0,0.0,0.0,-1.0,311.858
ExperimentResult3945550769603123269.obj,92.123,NaN,-0.0,0.0,NaN,-0.0,0.0,8.986,24.893,0.0,60.467,37.978,0.0,0.0,0.0,-1.0,228.203
ExperimentResult3247774328207693546.obj,88.909,NaN,-0.0,0.0,NaN,-0.0,0.0,8.303,21.254,0.0,51.925,27.94,0.0,0.0,0.0,-1.0,201.581
ExperimentResult2440813678615213836.obj,71.588,NaN,-0.0,0.0,NaN,-0.0,0.0,8.385,18.758,0.0,42.258,19.236,0.0,0.0,0.0,-1.0,165.657
ExperimentResult8858196672737210177.obj,89.304,NaN,-0.0,0.0,NaN,-0.0,0.0,6.995,21.802,0.0,58.052,35.969,0.0,0.0,0.0,-1.0,215.384
ExperimentResult5628109669825317512.obj,1233.714,NaN,-0.0,0.0,NaN,-0.0,0.0,98.473,19.385,0.0,585.994,17.408,0.0,0.0,0.0,-1.0,1963.282
ExperimentResult8294350708556763104.obj,541.407,NaN,-0.0,0.0,NaN,-0.0,0.0,122.615,87.301,0.0,334.673,89.131,0.0,0.0,0.0,-1.0,1178.442
ExperimentResult3360982389270474715.obj,274.602,NaN,-0.0,0.0,NaN,-0.0,0.0,19.157,51.872,0.0,221.259,71.973,0.0,0.0,0.0,-1.0,643.706
ExperimentResult2794706023225188535.obj,78.154,NaN,-0.0,0.0,NaN,-0.0,0.0,8.282,18.512,0.0,50.435,26.011,0.0,0.0,0.0,-1.0,186.745
ExperimentResult3642907014312478587.obj,38.938,NaN,-0.0,0.0,NaN,-0.0,0.0,5.047,10.559,0.0,21.985,10.491,0.0,0.0,0.0,-1.0,90.984
ExperimentResult71077870529929041.obj,37.238,NaN,-0.0,0.0,NaN,-0.0,0.0,4.272,11.279,0.0,20.669,9.517,0.0,0.0,0.0,-1.0,86.081
ExperimentResult153195483966688907.obj,428.357,NaN,-0.0,0.0,NaN,-0.0,0.0,39.326,152.307,0.0,342.97,96.35,0.0,0.0,0.0,-1.0,1063.348
ExperimentResult2414394025267131173.obj,77.076,NaN,-0.0,0.0,NaN,-0.0,0.0,7.922,20.588,0.0,38.564,28.975,0.0,0.0,0.0,-1.0,176.813
ExperimentResult1417335579288297147.obj,629.754,NaN,-0.0,0.0,NaN,-0.0,0.0,64.365,25.229,0.0,312.065,21.267,0.0,0.0,0.0,-1.0,1056.051
ExperimentResult4871360615142316557.obj,77.775,NaN,-0.0,0.0,NaN,-0.0,0.0,8.293,19.063,0.0,43.979,19.892,0.0,0.0,0.0,-1.0,178.027
ExperimentResult5511445580615408046.obj,2061.959,NaN,-0.0,0.0,NaN,-0.0,0.0,106.135,365.309,0.0,1072.437,197.264,0.0,0.0,0.0,-1.0,3806.773
ExperimentResult6944641448276418133.obj,40.492,NaN,-0.0,0.0,NaN,-0.0,0.0,5.368,12.829,0.0,24.196,15.806,0.0,0.0,0.0,-1.0,101.48
ExperimentResult8218441309202345613.obj,896.079,NaN,-0.0,0.0,NaN,-0.0,0.0,70.183,223.998,0.0,494.619,93.35,0.0,0.0,0.0,-1.0,1781.142
ExperimentResult7317036260157183421.obj,26.235,NaN,-0.0,0.0,NaN,-0.0,0.0,2.522,4.863,0.0,9.51,4.883,0.0,0.0,0.0,-1.0,51.341
ExperimentResult6630614859883882304.obj,37.474,NaN,-0.0,0.0,NaN,-0.0,0.0,4.198,9.729,0.0,22.37,10.998,0.0,0.0,0.0,-1.0,87.737
ExperimentResult238625930363152150.obj,73.672,NaN,-0.0,0.0,NaN,-0.0,0.0,8.046,19.349,0.0,41.983,18.793,0.0,0.0,0.0,-1.0,166.149
ExperimentResult6559176233706864065.obj,1214.591,NaN,-0.0,0.0,NaN,-0.0,0.0,104.698,21.018,0.0,571.907,23.484,0.0,0.0,0.0,-1.0,1938.988
ExperimentResult2673107704462046927.obj,2076.828,NaN,-0.0,0.0,NaN,-0.0,0.0,128.58,421.783,0.0,1045.388,230.021,0.0,0.0,0.0,-1.0,3905.814
ExperimentResult6510563044522826969.obj,136.856,NaN,-0.0,0.0,NaN,-0.0,0.0,11.816,30.105,0.0,74.955,27.832,0.0,0.0,0.0,-1.0,284.997
ExperimentResult4786504090896944678.obj,114.659,NaN,-0.0,0.0,NaN,-0.0,0.0,13.098,19.499,0.0,47.45,29.134,0.0,0.0,0.0,-1.0,228.091
ExperimentResult3337767900991417295.obj,634.079,NaN,-0.0,0.0,NaN,-0.0,0.0,53.351,22.944,0.0,320.357,26.73,0.0,0.0,0.0,-1.0,1062.499
ExperimentResult7035406792374738247.obj,260.919,NaN,-0.0,0.0,NaN,-0.0,0.0,23.924,26.406,0.0,118.642,25.675,0.0,0.0,0.0,-1.0,459.123
ExperimentResult5211228384220401175.obj,541.433,NaN,-0.0,0.0,NaN,-0.0,0.0,131.618,90.785,0.0,288.533,96.827,0.0,0.0,0.0,-1.0,1152.598
ExperimentResult5616770010464756017.obj,1242.929,NaN,-0.0,0.0,NaN,-0.0,0.0,83.664,20.467,0.0,648.522,23.132,0.0,0.0,0.0,-1.0,2022.241
ExperimentResult1842667149375852642.obj,67.446,NaN,-0.0,0.0,NaN,-0.0,0.0,8.427,20.18,0.0,57.434,26.048,0.0,0.0,0.0,-1.0,184.654
ExperimentResult3865300723314145487.obj,42.666,NaN,-0.0,0.0,NaN,-0.0,0.0,5.306,12.005,0.0,25.204,16.191,0.0,0.0,0.0,-1.0,110.284
ExperimentResult6650903735979607750.obj,36.797,NaN,-0.0,0.0,NaN,-0.0,0.0,4.431,9.201,0.0,18.396,7.525,0.0,0.0,0.0,-1.0,79.778
ExperimentResult3642349234855847977.obj,26.054,NaN,-0.0,0.0,NaN,-0.0,0.0,2.508,5.399,0.0,10.896,6.611,0.0,0.0,0.0,-1.0,54.899
ExperimentResult296046417448271096.obj,99.411,NaN,-0.0,0.0,NaN,-0.0,0.0,13.964,29.119,0.0,88.796,25.075,0.0,0.0,0.0,-1.0,261.703
ExperimentResult8308012920077483504.obj,136.244,NaN,-0.0,0.0,NaN,-0.0,0.0,12.325,31.722,0.0,81.093,27.987,0.0,0.0,0.0,-1.0,293.135
